INDEX VERSION 1.126+\\nkm18427\prv-mdv\Eclipse Workspaces\TCM2013\.metadata\.plugins\org.eclipse.jdt.core
30765161.index
4041092966.index
4155206848.index
403949697.index
4173023868.index
1697886153.index
163172794.index
3974580528.index
2903620380.index
4108727661.index
2986206043.index
305854171.index
3133528496.index
1818563445.index
1995173708.index
1115467115.index
2639999900.index
1498219845.index
1947217174.index
3065916431.index
